^C:\USERS\STUDENT230416\DOCUMENTS\VISUAL STUDIO 2015\PROJECTS\SKLEP\SKLEP\STDAFX.CPP
/c /ZI /nologo /W3 /WX- /sdl /Od /Oy- /D WIN32 /D _DEBUG /D _CONSOLE /D _UNICODE /D UNICODE /Gm /EHsc /RTC1 /MDd /GS /fp:precise /Zc:wchar_t /Zc:forScope /Zc:inline /Yc"stdafx.h" /Fp"DEBUG\SKLEP.PCH" /Fo"DEBUG\\" /Fd"DEBUG\VC140.PDB" /Gd /TP /analyze- C:\USERS\STUDENT230416\DOCUMENTS\VISUAL STUDIO 2015\PROJECTS\SKLEP\SKLEP\STDAFX.CPP
^C:\USERS\STUDENT230416\DOCUMENTS\VISUAL STUDIO 2015\PROJECTS\SKLEP\SKLEP\PRACOWNICY.CPP
/c /ZI /nologo /W3 /WX- /sdl /Od /Oy- /D WIN32 /D _DEBUG /D _CONSOLE /D _UNICODE /D UNICODE /Gm /EHsc /RTC1 /MDd /GS /fp:precise /Zc:wchar_t /Zc:forScope /Zc:inline /Yu"stdafx.h" /Fp"DEBUG\SKLEP.PCH" /Fo"DEBUG\\" /Fd"DEBUG\VC140.PDB" /Gd /TP /analyze- C:\USERS\STUDENT230416\DOCUMENTS\VISUAL STUDIO 2015\PROJECTS\SKLEP\SKLEP\PRACOWNICY.CPP
^C:\USERS\STUDENT230416\DOCUMENTS\VISUAL STUDIO 2015\PROJECTS\SKLEP\SKLEP\PRODUKT.CPP
/c /ZI /nologo /W3 /WX- /sdl /Od /Oy- /D WIN32 /D _DEBUG /D _CONSOLE /D _UNICODE /D UNICODE /Gm /EHsc /RTC1 /MDd /GS /fp:precise /Zc:wchar_t /Zc:forScope /Zc:inline /Yu"stdafx.h" /Fp"DEBUG\SKLEP.PCH" /Fo"DEBUG\\" /Fd"DEBUG\VC140.PDB" /Gd /TP /analyze- C:\USERS\STUDENT230416\DOCUMENTS\VISUAL STUDIO 2015\PROJECTS\SKLEP\SKLEP\PRODUKT.CPP
^C:\USERS\STUDENT230416\DOCUMENTS\VISUAL STUDIO 2015\PROJECTS\SKLEP\SKLEP\SKLEP.CPP
/c /ZI /nologo /W3 /WX- /sdl /Od /Oy- /D WIN32 /D _DEBUG /D _CONSOLE /D _UNICODE /D UNICODE /Gm /EHsc /RTC1 /MDd /GS /fp:precise /Zc:wchar_t /Zc:forScope /Zc:inline /Yu"stdafx.h" /Fp"DEBUG\SKLEP.PCH" /Fo"DEBUG\\" /Fd"DEBUG\VC140.PDB" /Gd /TP /analyze- C:\USERS\STUDENT230416\DOCUMENTS\VISUAL STUDIO 2015\PROJECTS\SKLEP\SKLEP\SKLEP.CPP
^C:\USERS\STUDENT230416\DOCUMENTS\VISUAL STUDIO 2015\PROJECTS\SKLEP\SKLEP\MIASTO.CPP
/c /ZI /nologo /W3 /WX- /sdl /Od /Oy- /D WIN32 /D _DEBUG /D _CONSOLE /D _UNICODE /D UNICODE /Gm /EHsc /RTC1 /MDd /GS /fp:precise /Zc:wchar_t /Zc:forScope /Zc:inline /Yu"stdafx.h" /Fp"DEBUG\SKLEP.PCH" /Fo"DEBUG\\" /Fd"DEBUG\VC140.PDB" /Gd /TP /analyze- C:\USERS\STUDENT230416\DOCUMENTS\VISUAL STUDIO 2015\PROJECTS\SKLEP\SKLEP\MIASTO.CPP
